{"frames": {

"full_hangman1.png":
{
	"frame": {"x":0,"y":0,"w":60,"h":120},
	"rotated": false,
	"trimmed": false,
	"spriteSourceSize": {"x":0,"y":0,"w":60,"h":120},
	"sourceSize": {"w":60,"h":120},
	"pivot": {"x":0.5,"y":0.5}
},
"full_hangman2.png":
{
	"frame": {"x":0,"y":120,"w":60,"h":120},
	"rotated": false,
	"trimmed": false,
	"spriteSourceSize": {"x":0,"y":0,"w":60,"h":120},
	"sourceSize": {"w":60,"h":120},
	"pivot": {"x":0.5,"y":0.5}
},
"full_hangman3.png":
{
	"frame": {"x":0,"y":240,"w":60,"h":120},
	"rotated": false,
	"trimmed": false,
	"spriteSourceSize": {"x":0,"y":0,"w":60,"h":120},
	"sourceSize": {"w":60,"h":120},
	"pivot": {"x":0.5,"y":0.5}
},
"full_hangman4.png":
{
	"frame": {"x":0,"y":360,"w":60,"h":120},
	"rotated": false,
	"trimmed": false,
	"spriteSourceSize": {"x":0,"y":0,"w":60,"h":120},
	"sourceSize": {"w":60,"h":120},
	"pivot": {"x":0.5,"y":0.5}
},
"full_hangman5.png":
{
	"frame": {"x":0,"y":480,"w":60,"h":120},
	"rotated": false,
	"trimmed": false,
	"spriteSourceSize": {"x":0,"y":0,"w":60,"h":120},
	"sourceSize": {"w":60,"h":120},
	"pivot": {"x":0.5,"y":0.5}
},
"full_hangman6.png":
{
	"frame": {"x":0,"y":600,"w":60,"h":120},
	"rotated": false,
	"trimmed": false,
	"spriteSourceSize": {"x":0,"y":0,"w":60,"h":120},
	"sourceSize": {"w":60,"h":120},
	"pivot": {"x":0.5,"y":0.5}
},
"full_hangman7.png":
{
	"frame": {"x":0,"y":720,"w":60,"h":120},
	"rotated": false,
	"trimmed": false,
	"spriteSourceSize": {"x":0,"y":0,"w":60,"h":120},
	"sourceSize": {"w":60,"h":120},
	"pivot": {"x":0.5,"y":0.5}
}},
"meta": {
	"app": "http://www.codeandweb.com/texturepacker",
	"version": "1.0",
	"image": "assets.png",
	"format": "RGBA8888",
	"size": {"w":60,"h":840},
	"scale": "1",
	"smartupdate": "$TexturePacker:SmartUpdate:d75fd8ba46eb836911f728792c7859bf:7fad351fe1100a0be66d2681cc3afadd:a759b6bbc8381ac9c472b28f589ad0d6$"
}
}
